es/vaadin/views/contacts/ContactForm$SaveEvent.class
es/vaadin/data/repository/CompanyRepository.class
es/vaadin/data/repository/ContactRepository.class
es/vaadin/views/contacts/ContactListView.class
es/vaadin/views/MainView.class
es/vaadin/data/service/CrmService.class
es/vaadin/views/contacts/ContactForm$DeleteEvent.class
es/vaadin/Application.class
es/vaadin/views/contacts/ContactForm$CloseEvent.class
es/vaadin/data/repository/StatusRepository.class
es/vaadin/data/AbstractEntity.class
es/vaadin/views/contacts/ContactForm$ContactFormEvent.class
es/vaadin/data/entity/Status.class
es/vaadin/data/entity/Company.class
es/vaadin/controller/ApiController.class
es/vaadin/data/entity/Contact.class
es/vaadin/views/contacts/ContactForm.class
es/vaadin/dto/User.class
es/vaadin/views/ListView.class
